Employee Attrition Example
…
automl_leader <- automl_models_h2o@leader

Evaluation

pred_h2o <- h2o::h2o.predict(object = automl_leader, newdata = test_h2o)

test_performance <- test_h2o %>% 
  tibble::as_tibble() %>% 
  dplyr::select(Attrition) %>% 
  dplyr::mutate(pred = as.vector(pred_h2o$predict)) %>% 
  dplyr::mutate_if(is.character, as.factor)

test_performance

## # A tibble: 211 x 2
##    Attrition pred 
##    <fct>     <fct>
##  1 No        No   
##  2 No        No   
##  3 Yes       Yes  
##  4 No        No   
##  5 No        No   
##  6 No        No   
##  7 Yes       Yes  
##  8 No        No   
##  9 No        No   
## 10 Yes       Yes  
## #  with 201 more rows
…
model_type.H2OBinomialModel <- function(x, ...) return('classification')

predict_model.H2OBinomialModel <- function(x, newdata, type, ...) {
  pred <- h2o::h2o.predict(x, h2o::as.h2o(newdata))
  
  return(as.data.frame(pred[, -1]))
  
}

predict_model(x = automl_leader, newdata = as.data.frame(test_h2o[, -1]), type = 'raw') %>% 
  tibble::as_tibble()

## # A tibble: 211 x 2
##        No    Yes
##     <dbl>  <dbl>
##  1 0.857  0.143 
##  2 0.955  0.0446
##  3 0.0422 0.958 
##  4 0.959  0.0406
##  5 0.886  0.114 
##  6 0.963  0.0367
##  7 0.145  0.855 
##  8 0.934  0.0659
##  9 0.889  0.111 
## 10 0.463  0.537 
## #  with 201 more rows
…
Feature Evaluation

attrition_critical_features <- employee_attrition %>% 
  tibble::as_tibble() %>% 
  dplyr::select(Attrition, TrainingTimesLastYear, JobRole, OverTime) %>% 
  dplyr::mutate(Case = dplyr::row_number()) %>% 
  dplyr::select(Case, dplyr::everything())

attrition_critical_features

## # A tibble: 1,470 x 5
##     Case Attrition TrainingTimesLastYear JobRole                   OverTime
##    <int> <fct>                     <dbl> <fct>                     <fct>   
##  1     1 Yes                           0 Sales Executive           Yes     
##  2     2 No                            3 Research Scientist        No      
##  3     3 Yes                           3 Laboratory Technician     Yes     
##  4     4 No                            3 Research Scientist        Yes     
##  5     5 No                            3 Laboratory Technician     No      
##  6     6 No                            2 Laboratory Technician     No      
##  7     7 No                            3 Laboratory Technician     Yes     
##  8     8 No                            2 Laboratory Technician     No      
##  9     9 No                            2 Manufacturing Director    No      
## 10    10 No                            3 Healthcare Representative No      
## #  with 1,460 more rows
…
